How To Learn to Code : R for Data Science - Example Analysis: Temperatures
…
Now, we’ll calculate the average temperature for each neighborhood on each day of the week. Again, we will use summarize(), then check our math.

# calculate avg daily temps for each neighborhood
dailyavg <- temps |>
  group_by(neighborhood, wkday) |>
  summarize(avgtemp = mean(temperature))

dailyavg

# A tibble: 35 × 3
# Groups:   neighborhood [5]
   neighborhood      wkday avgtemp
   <chr>             <chr>   <dbl>
 1 Coffelt           Fri      NA  
 2 Coffelt           Mon      28.8
 3 Coffelt           Sat      NA  
 4 Coffelt           Sun      NA  
 5 Coffelt           Thu      NA  
 6 Coffelt           Tue      27.9
 7 Coffelt           Wed      27.3
 8 Encanto-PalmCroft Fri      NA  
 9 Encanto-PalmCroft Mon      NA  
10 Encanto-PalmCroft Sat      NA  
# ℹ 25 more rows

We can see we have gotten a lot of NA values! This is because not every temperature has a value: we will account for this by including the na.rm = TRUE argument.

# redo math
dailyavg <- temps |>
  group_by(neighborhood, wkday) |>
  summarize(avgtemp = mean(temperature, na.rm = TRUE))

dailyavg

# A tibble: 35 × 3
# Groups:   neighborhood [5]
   neighborhood      wkday avgtemp
   <chr>             <chr>   <dbl>
 1 Coffelt           Fri      28.1
 2 Coffelt           Mon      28.8
 3 Coffelt           Sat      27.6
 4 Coffelt           Sun      28.7
 5 Coffelt           Thu      27.4
 6 Coffelt           Tue      27.9
 7 Coffelt           Wed      27.3
 8 Encanto-PalmCroft Fri      27.4
 9 Encanto-PalmCroft Mon      27.2
10 Encanto-PalmCroft Sat      27.5
# ℹ 25 more rows
…
